Biostat 203B Homework 4
…
icu_tbl <- icu_cohort %>%
  select(features, thirty_day_mort) %>%
  print(width = Inf)

Warning: Using an external vector in selections was deprecated in tidyselect 1.1.0.
ℹ Please use `all_of()` or `any_of()` instead.
  # Was:
  data %>% select(features)

  # Now:
  data %>% select(all_of(features))

See <https://tidyselect.r-lib.org/reference/faq-external-vector.html>.

# A tibble: 53,065 × 11
   first_careunit admission_type              insurance ethnicity             
   <chr>          <chr>                       <chr>     <chr>                 
 1 Neuro Stepdown OBSERVATION ADMIT           Medicare  OTHER                 
 2 Neuro Stepdown SURGICAL SAME DAY ADMISSION Other     OTHER                 
 3 Neuro Stepdown OBSERVATION ADMIT           Other     WHITE                 
 4 Neuro Stepdown OBSERVATION ADMIT           Other     WHITE                 
 5 Neuro Stepdown OBSERVATION ADMIT           Other     BLACK/AFRICAN AMERICAN
 6 Neuro Stepdown OBSERVATION ADMIT           Other     WHITE                 
 7 Neuro Stepdown OBSERVATION ADMIT           Other     HISPANIC/LATINO       
 8 Neuro Stepdown SURGICAL SAME DAY ADMISSION Other     WHITE                 
 9 Neuro Stepdown OBSERVATION ADMIT           Other     WHITE                 
10 Neuro Stepdown URGENT                      Other     WHITE                 
   gender adm_age WhiteBloodCells Glucose HeartRate RespiratoryRate
   <chr>    <int>           <dbl>   <dbl>     <dbl>           <dbl>
 1 M           80             7.8     113        78              16
 2 F           49             3.5      99        91               5
 3 F           72            10.6      78        67              16
 4 F           69            12.1     106        74              12
 5 M           63             5.4     127        95              26
 6 F           57             9.2     135        96              23
 7 F           46             3.6      99        89              18
 8 F           52            14.7     157        71              23
 9 F           24             7.1      85        67              17
10 F           49            20.1      98        72              12
   thirty_day_mort
   <lgl>          
 1 FALSE          
 2 FALSE          
 3 FALSE          
 4 FALSE          
 5 FALSE          
 6 TRUE           
 7 FALSE          
 8 FALSE          
 9 FALSE          
10 FALSE          
# … with 53,055 more rows
…
# Visualize random forest cross validation results
rf_fit %>% collect_metrics() %>%
  print(width = Inf) %>%
  filter(.metric == "roc_auc") %>%
  ggplot(mapping = aes(x = trees, y = mean, color = mtry)) +
  geom_point()

# A tibble: 30 × 8
    mtry trees .metric  .estimator  mean     n std_err .config              
   <int> <int> <chr>    <chr>      <dbl> <int>   <dbl> <chr>                
 1     1   100 accuracy binary     0.851     5 0.00201 Preprocessor1_Model01
 2     1   100 roc_auc  binary     0.732     5 0.00418 Preprocessor1_Model01
 3     1   200 accuracy binary     0.851     5 0.00199 Preprocessor1_Model02
 4     1   200 roc_auc  binary     0.736     5 0.00354 Preprocessor1_Model02
 5     1   300 accuracy binary     0.851     5 0.00199 Preprocessor1_Model03
 6     1   300 roc_auc  binary     0.736     5 0.00269 Preprocessor1_Model03
 7     2   100 accuracy binary     0.852     5 0.00230 Preprocessor1_Model04
 8     2   100 roc_auc  binary     0.732     5 0.00307 Preprocessor1_Model04
 9     2   200 accuracy binary     0.853     5 0.00211 Preprocessor1_Model05
10     2   200 roc_auc  binary     0.733     5 0.00317 Preprocessor1_Model05
# … with 20 more rows
…
Engine-Specific Arguments:
  standardize = FALSE

Computational engine: glmnet 

# Logistic tuning grid
param_grid_l <- grid_regular(
  penalty(range = c(-6,3)),
  mixture(),
  levels = c(100, 5)
)
param_grid_l

# A tibble: 500 × 2
      penalty mixture
        <dbl>   <dbl>
 1 0.000001         0
 2 0.00000123       0
 3 0.00000152       0
 4 0.00000187       0
 5 0.00000231       0
 6 0.00000285       0
 7 0.00000351       0
 8 0.00000433       0
 9 0.00000534       0
10 0.00000658       0
# … with 490 more rows
…
# Visualize logistic regression results
logi_fit %>%
  collect_metrics() %>%
  print(width = Inf) %>%
  filter(.metric == "roc_auc") %>%
  ggplot(mapping = aes(x = penalty, y = mean, color = mixture)) +
  geom_point() +
  labs(x = "Penalty", y = "CV AUC") +
  scale_x_log10()

# A tibble: 1,000 × 8
      penalty mixture .metric  .estimator  mean     n std_err
        <dbl>   <dbl> <chr>    <chr>      <dbl> <int>   <dbl>
 1 0.000001         0 accuracy binary     0.850     5 0.00224
 2 0.000001         0 roc_auc  binary     0.723     5 0.00116
 3 0.00000123       0 accuracy binary     0.850     5 0.00224
 4 0.00000123       0 roc_auc  binary     0.723     5 0.00116
 5 0.00000152       0 accuracy binary     0.850     5 0.00224
 6 0.00000152       0 roc_auc  binary     0.723     5 0.00116
 7 0.00000187       0 accuracy binary     0.850     5 0.00224
 8 0.00000187       0 roc_auc  binary     0.723     5 0.00116
 9 0.00000231       0 accuracy binary     0.850     5 0.00224
10 0.00000231       0 roc_auc  binary     0.723     5 0.00116
   .config               
   <chr>                 
 1 Preprocessor1_Model001
 2 Preprocessor1_Model001
 3 Preprocessor1_Model002
 4 Preprocessor1_Model002
 5 Preprocessor1_Model003
 6 Preprocessor1_Model003
 7 Preprocessor1_Model004
 8 Preprocessor1_Model004
 9 Preprocessor1_Model005
10 Preprocessor1_Model005
# … with 990 more rows
…
Computational engine: kernlab 

# SVM tuning Grid

param_grid_svm <- grid_regular(
  cost(range = c(-8, 5)), 
  rbf_sigma(range = c(-5, -3)),
  levels = c(14, 5)
)
param_grid_svm

# A tibble: 70 × 2
      cost rbf_sigma
     <dbl>     <dbl>
 1 0.00391   0.00001
 2 0.00781   0.00001
 3 0.0156    0.00001
 4 0.0312    0.00001
 5 0.0625    0.00001
 6 0.125     0.00001
 7 0.25      0.00001
 8 0.5       0.00001
 9 1         0.00001
10 2         0.00001
# … with 60 more rows
…
